Place,Sex,Division,Name,BirthYear,Country,WeightClassKg,BodyweightKg,Squat1Kg,Squat2Kg,Squat3Kg,Best3SquatKg,Bench1Kg,Bench2Kg,Bench3Kg,Best3BenchKg,Deadlift1Kg,Deadlift2Kg,Deadlift3Kg,Best3DeadliftKg,TotalKg,Squat4Kg,Deadlift4Kg,Event,Equipment
1,F,Open,Cheryl Jones,,USA,44,43.35,112.5,120,125,125,57.5,62.5,-65,62.5,125,130,-135,130,317.5,128,,SBD,Single-ply
2,F,Open,Hisako Yoshida,1951,Japan,44,43.35,105,115,-120,115,45,47.5,50,50,117.5,130,-135,130,295,,,SBD,Single-ply
3,F,Open,Glenda Bottica,,Australia,44,43.65,100,105,-107.5,105,-52.5,-52.5,57.5,57.5,130,-132.5,132.5,132.5,295,,,SBD,Single-ply
4,F,Open,Anna-Liisa Prinkkala,1955,Finland,44,42.95,115,-122.5,122.5,122.5,45,50,-52.5,50,120,-125,-125,120,292.5,,,SBD,Single-ply
5,F,Open,Jane White,,UK,44,42.8,95,-102.5,-102.5,95,50,55,57.5,57.5,100,110,-117.5,110,262.5,,,SBD,Single-ply
6,F,Open,Andrea Lam,,Canada,44,43.4,87.5,92.5,95,95,40,42.5,-45,42.5,102.5,112.5,-117.5,112.5,250,,,SBD,Single-ply
1,F,Open,Diana Rowell,,USA,48,47.85,125,132.5,-140,132.5,52.5,55,-57.5,55,155,167.5,-172.5,167.5,355,143,172.5,SBD,Single-ply
2,F,Open,Joelle Smal,1946,Belgium,48,47.4,115,120,-125,120,57.5,60,-62.5,60,140,145,150,150,330,,,SBD,Single-ply
3,F,Open,Kazue Imai,,Japan,48,47.7,110,125,130,130,52.5,57.5,-60,57.5,110,-120,-120,110,297.5,,,SBD,Single-ply
4,F,Open,Erich Muir,,Australia,48,47.6,112.5,-117.5,-117.5,112.5,47.5,52.5,55,55,112.5,117.5,-120,117.5,285,,,SBD,Single-ply
5,F,Open,Susanne Smith,,UK,48,46.7,-105,105,-112.5,105,62.5,-67.5,67.5,67.5,105,110,-115,110,282.5,,,SBD,Single-ply
1,F,Open,Kali Bogias,,Canada,52,51.45,135,140,145,145,77.5,80,82.5,82.5,150,160,-165,160,387.5,152.5,,SBD,Single-ply
2,F,Open,Sue Jordan,,Australia,52,50.4,140,147.5,152.5,152.5,65,70,-72.5,70,150,160,-167.5,160,382.5,,,SBD,Single-ply
3,F,Open,Grete Gagnæs,1962,Norway,52,50.9,115,-122.5,122.5,122.5,60,65,67.5,67.5,130,-135,-135,130,320,,,SBD,Single-ply
4,F,Open,Lee Steggles,,UK,52,51.55,-110,110,-115,110,55,60,-62.5,60,125,130,-135,130,300,,,SBD,Single-ply
5,F,Open,Theresa May,,UK,52,50.45,110,-117.5,-117.5,110,47.5,50,-52.5,50,132.5,137.5,-140,137.5,297.5,,,SBD,Single-ply
6,F,Open,Jan Moir,,Canada,52,51.7,105,-115,-115,105,50,-55,-57.5,50,127.5,132.5,-140,132.5,287.5,,,SBD,Single-ply
7,F,Open,Nobuko Watanabe,,Japan,52,51.5,80,-95,-100,80,37.5,-42.5,-42.5,37.5,-100,100,-110,100,217.5,,,SBD,Single-ply
DQ,F,Open,Vicky Steenrod,1949,USA,52,51.3,-137.5,-137.5,-137.5,,,,,,,,,,,,,SBD,Single-ply
1,F,Open,Julie Thomas,,USA,56,54.75,157.5,-167.5,-167.5,157.5,102.5,-107.5,-107.5,102.5,160,180,-185,180,440,,,SBD,Single-ply
2,F,Open,Elina Sorakunnas,,Finland,56,54.9,135,142.5,147.5,147.5,60,65,-67.5,65,135,145,155,155,367.5,,,SBD,Single-ply
3,F,Open,Umeyo Kunihiro,1953,Japan,56,55.9,115,130,135,135,70,-75,-75,70,150,-165,-165,150,355,,,SBD,Single-ply
4,F,Open,Christine Saunders,,Australia,56,56,127.5,-137.5,-137.5,127.5,62.5,67.5,-72.5,67.5,135,147.5,-152.5,147.5,342.5,,,SBD,Single-ply
5,F,Open,Donna Mears,,UK,56,54.5,122.5,132.5,-137.5,132.5,47.5,-55,-55,47.5,135,145,152.5,152.5,332.5,,,SBD,Single-ply
6,F,Open,Linda Vickers,,Australia,56,54.75,115,125,-130,125,60,62.5,-65,62.5,140,-150,-150,140,327.5,,,SBD,Single-ply
7,F,Open,Marc Devriers,,Canada,56,54.3,105,120,-132.5,120,-55,55,60,60,110,-125,-125,110,290,,,SBD,Single-ply
8,F,Open,Angela Lam,,Canada,56,54.35,-100,107.5,112.5,112.5,45,47.5,-50,47.5,112.5,122.5,-130,122.5,282.5,,,SBD,Single-ply
1,F,Open,Ruthi Shafer,1957,USA,60,59.3,187.5,-200,200,200,82.5,87.5,-92.5,87.5,195,205,212.5,212.5,500,,,SBD,Single-ply
2,F,Open,Cathy Millen,1967,New Zealand,60,59.45,127.5,135,137.5,137.5,67.5,72.5,-75,72.5,170,180,-185,180,390,,,SBD,Single-ply
3,F,Open,Rita Bass,,UK,60,59.45,137.5,-147.5,-147.5,137.5,70,-75,75,75,150,162.5,-177.5,162.5,375,,,SBD,Single-ply
4,F,Open,Astrid Åsbø,,Norway,60,58.95,130,137.5,140,140,62.5,-67.5,-67.5,62.5,140,155,-160,155,357.5,,,SBD,Single-ply
5,F,Open,Anna-Maija Yliluoma,,Finland,60,59.45,-130,-135,135,135,-70,70,-72.5,70,140,150,152.5,152.5,357.5,,,SBD,Single-ply
6,F,Open,Janet Deputer,,Canada,60,59.35,90,-100,-100,90,47.5,-52.5,-52.5,47.5,110,120,,120,257.5,,,SBD,Single-ply
1,F,Open,Linda Miller,,Australia,67.5,67.3,157.5,-167.5,167.5,167.5,77.5,82.5,85,85,177.5,182.5,,182.5,435,,,SBD,Single-ply
2,F,Open,Heidi Wittesch,1957,Australia,67.5,67.1,-165,170,175,175,-82.5,82.5,87.5,87.5,165,-175,-175,165,427.5,,,SBD,Single-ply
3,F,Open,Donna Webb,,UK,67.5,62.5,140,150,-162.5,150,65,-70,-70,65,150,160,175,175,390,,,SBD,Single-ply
4,F,Open,Angie Rountree,,New Zealand,67.5,63.75,140,147.5,152.5,152.5,62.5,-70,-70,62.5,165,-175,-175,165,380,,,SBD,Single-ply
DQ,F,Open,Debra Poston,,USA,67.5,66.45,177.5,185,,185,-100,-100,-100,,,,,,,,,SBD,Single-ply
1,F,Open,Pam Matthews,,Australia,75,74.5,170,177.5,-182.5,177.5,95,102.5,-107.5,102.5,190,207.5,,207.5,487.5,,,SBD,Single-ply
2,F,Open,Jennifer Weyland,,USA,75,74.1,152.5,167.5,180,180,107.5,117.5,122.5,122.5,165,175,182.5,182.5,485,,,SBD,Single-ply
3,F,Open,Wanda Wilson,,Canada,75,73,137.5,-152.5,-160,137.5,67.5,72.5,75,75,160,-185,-185,160,372.5,,,SBD,Single-ply
1,F,Open,Bev Francis,,Australia,82.5,80.05,200,217.5,-222.5,217.5,137.5,145,-152.5,145,190,205,215,215,577.5,,,SBD,Single-ply
2,F,Open,Judith Oakes,1958,UK,82.5,76.85,185,197.5,205,205,105,110,112.5,112.5,190,-210,-210,190,507.5,,,SBD,Single-ply
3,F,Open,Lou Ann Smith,,USA,82.5,82.5,165,172.5,-180,172.5,87.5,92.5,-95,92.5,160,167.5,172.5,172.5,437.5,,,SBD,Single-ply
4,F,Open,Helen Hinchcliffe,,Canada,82.5,77.9,110,117.5,125,125,55,60,-62.5,60,125,-137.5,,125,310,,,SBD,Single-ply
1,F,Open,Gail Mulhall,,Australia,90,87.15,200,-212.5,212.5,212.5,115,120,-122.5,120,180,192.5,-200,192.5,525,,,SBD,Single-ply
2,F,Open,Maris Sternberg,1948,USA,90,88.4,175,185,192.5,192.5,87.5,95,100,100,160,172.5,180,180,472.5,,,SBD,Single-ply
3,F,Open,Jackie Jackson,,UK,90,85.9,155,160,167.5,167.5,75,80,82.5,82.5,157.5,165,172.5,172.5,422.5,,,SBD,Single-ply
4,F,Open,Janis Kerr,,UK,90,88.6,150,-155,-155,150,87.5,92.5,95,95,160,170,-182.5,170,415,,,SBD,Single-ply
1,F,Open,Wanda Sander,1962,USA,90+,98,175,192.5,202.5,202.5,92.5,102.5,110,110,182.5,210,-232.5,210,522.5,,,SBD,Single-ply
